[
  {
    "id": 12,
    "titre": "Chocolat Chaud",
    "image": "",
    "ingredients": [
      {"ressource":"eau",                        "quantity": 100,        "unity": "ml"      },
      {"ressource":"cacao poudre",               "quantity": 6,        "unity": "g"      },
      {"ressource":"sucre",                      "quantity": 12,        "unity": "g"      },
      {"ressource":"Chocalat (min. 70%)",        "quantity": 30,        "unity": "g"      },
      {"ressource":"Crème semi-epaisse",         "quantity": 30,        "unity": "g"      }
    ],
    "etape": [
      "Faire chauffer l'eau",
      "Dissoudre le sucre et le cacao",
      "Emietter le chocolat et le rajouter à l'appareil",
      "Une fois homogène, ajouter la crème"
    ],
    "imageetape": [],
    "recetteservice": 2,
    "notes": ""
  },


  {
    "id": 854,
    "titre": "Pain non pétri",
    "image": "",
    "ingredients": [
      {"ressource":"eau",                        "quantity": 450,        "unity": "g"      },
      {"ressource":"farine T45",               "quantity": 400,        "unity": "g"      },
      {"ressource":"farine T65",                      "quantity": 200,        "unity": "g"      },
      {"ressource":"sel",        "quantity": 2,        "unity": "cc"      }
    ],
    "etape": [
      "Mélanger et laiser cataliser 8h",
      "Travailler (étirer & pétrire) la pate toutes les 1h 3 fois",
      "fleurer le plan de travaille et mettez en boule",
      "Placer la pate dans une cocotte et la scarifier ",
      "Au four 20min avec couvercle et 20min sans couverlce"
    ],
    "imageetape": [],
    "recetteservice": 1,
    "notes": ""
  },{
  "id": 84,
  "titre": "Chatrou",
  "image": "",
  "ingredients": [
    {"ressource":"Poulpe",               "quantity": 1,        "unity": "kg"      }
  ],
  "etape": [
    "Azy tu connais",
    "appel maman lol"
  ],
  "imageetape": [],
  "recetteservice": 3,
  "notes": ""
}
]
